<?xml version="1.0" encoding="utf-8"?>
<!-- Generator: Adobe Illustrator 16.0.0, SVG Export Plug-In . SVG Version: 6.00 Build 0)  -->
<!DOCTYPE svg PUBLIC "-//W3C//DTD SVG 1.1//EN" "http://www.w3.org/Graphics/SVG/1.1/DTD/svg11.dtd">
<svg version="1.1" id="Calque_1" xmlns="http://www.w3.org/2000/svg" xmlns:xlink="http://www.w3.org/1999/xlink" x="0px" y="0px"
	 width="85.333px" height="77px" viewBox="0 0 85.333 77" enable-background="new 0 0 85.333 77" xml:space="preserve">
<path fill="#FFFFFF" d="M76.316,1H9.352c-4.42,0-8.036,3.15-8.036,7s3.616,7,8.036,7h66.964c4.419,0,8.035-3.15,8.035-7
	S80.735,1,76.316,1z"/>
<path fill="#FFFFFF" d="M76.316,31.482H9.352c-4.42,0-8.036,3.158-8.036,7.018c0,3.859,3.616,7.018,8.036,7.018h66.964
	c4.419,0,8.035-3.158,8.035-7.018C84.351,34.641,80.735,31.482,76.316,31.482z"/>
<path fill="#FFFFFF" d="M76.316,62H9.352c-4.42,0-8.036,3.149-8.036,6.999C1.316,72.85,4.932,76,9.352,76h66.964
	c4.419,0,8.035-3.15,8.035-7.001C84.351,65.149,80.735,62,76.316,62z"/>
</svg>
